{
    "PORT": 3001,
    "PEERS": "",
    "MY_ADDRESS": "ws://localhost:3001",
    "RPC_PORT": 5000,
    "ENABLE_RPC_LOG": true,
    "ENABLE_NODE_LOG": true,
    "log_block_file": "3001block",
    "log_state_file": "3001state"
}