public:  04d0c8c65ed202d423d89452ac6ff5012748bc60faaae902a88a54d309b86d34bf51bc8b0b929d74894ecb4037f7cd3f3391e62b686fa1b8971efc133f22ea4969
private:  ae78682b95ea6412e62d3826ca8def9ca27c8eecb617b99757ee733e6c4774b0

public:  04310ac0f9f4b04838c7bcfee8cbddedb7e6686133cfb2d4c7dfc81d52c0646540e37c2307e9ecf49161e920af7f87332fa43f5e29a5d2a90e6ea390d25438cbc2
private:  ebac12b3ac0916f8b95b13151cffb6f83d3fd2e3f0d47a7573fd08c62386a829
